-- Merging decision tree log ---
manifest
ADDED from D:\Documents\lucheren\JianZhenKeJi_Road_Car_Person\app\src\main\AndroidManifest.xml:2:1-534:12
	package
		ADDED from D:\Documents\lucheren\JianZhenKeJi_Road_Car_Person\app\src\main\AndroidManifest.xml:2:11-58
		INJECTED from D:\Documents\lucheren\JianZhenKeJi_Road_Car_Person\app\src\main\AndroidManifest.xml
		INJECTED from D:\Documents\lucheren\JianZhenKeJi_Road_Car_Person\app\src\main\AndroidManifest.xml
	android:versionName
		ADDED from D:\Documents\lucheren\JianZhenKeJi_Road_Car_Person\app\src\main\AndroidManifest.xml:5:11-38
		INJECTED from D:\Documents\lucheren\JianZhenKeJi_Road_Car_Person\app\src\main\AndroidManifest.xml
		INJECTED from D:\Documents\lucheren\JianZhenKeJi_Road_Car_Person\app\src\main\AndroidManifest.xml
	android:versionCode
		ADDED from D:\Documents\lucheren\JianZhenKeJi_Road_Car_Person\app\src\main\AndroidManifest.xml:4:11-34
		INJECTED from D:\Documents\lucheren\JianZhenKeJi_Road_Car_Person\app\src\main\AndroidManifest.xml
		INJECTED from D:\Documents\lucheren\JianZhenKeJi_Road_Car_Person\app\src\main\AndroidManifest.xml
	xmlns:android
		ADDED from D:\Documents\lucheren\JianZhenKeJi_Road_Car_Person\app\src\main\AndroidManifest.xml:3:11-69
uses-sdk
ADDED from D:\Documents\lucheren\JianZhenKeJi_Road_Car_Person\app\src\main\AndroidManifest.xml:7:5-9:40
MERGED from [JianZhenKeJi_Road_Car_Person:library_viewpagerIndicator:unspecified] D:\Documents\lucheren\JianZhenKeJi_Road_Car_Person\app\build\intermediates\exploded-aar\JianZhenKeJi_Road_Car_Person\library_viewpagerIndicator\unspecified\AndroidManifest.xml:7:5-43
MERGED from [JianZhenKeJi_Road_Car_Person:library_calendarlibrary:unspecified] D:\Documents\lucheren\JianZhenKeJi_Road_Car_Person\app\build\intermediates\exploded-aar\JianZhenKeJi_Road_Car_Person\library_calendarlibrary\unspecified\AndroidManifest.xml:7:5-9:41
MERGED from [JianZhenKeJi_Road_Car_Person:library_pullToRefresh:unspecified] D:\Documents\lucheren\JianZhenKeJi_Road_Car_Person\app\build\intermediates\exploded-aar\JianZhenKeJi_Road_Car_Person\library_pullToRefresh\unspecified\AndroidManifest.xml:7:5-9:40
MERGED from [com.github.zhaokaiqiang.klog:library:0.0.1] D:\Documents\lucheren\JianZhenKeJi_Road_Car_Person\app\build\intermediates\exploded-aar\com.github.zhaokaiqiang.klog\library\0.0.1\AndroidManifest.xml:8:5-10:41
MERGED from [pl.droidsonroids.gif:android-gif-drawable:1.1.7] D:\Documents\lucheren\JianZhenKeJi_Road_Car_Person\app\build\intermediates\exploded-aar\pl.droidsonroids.gif\android-gif-drawable\1.1.7\AndroidManifest.xml:6:5-8:41
MERGED from [JianZhenKeJi_Road_Car_Person:emptyLayout:unspecified] D:\Documents\lucheren\JianZhenKeJi_Road_Car_Person\app\build\intermediates\exploded-aar\JianZhenKeJi_Road_Car_Person\emptyLayout\unspecified\AndroidManifest.xml:7:5-9:41
	android:targetSdkVersion
		ADDED from D:\Documents\lucheren\JianZhenKeJi_Road_Car_Person\app\src\main\AndroidManifest.xml:9:9-38
		INJECTED from D:\Documents\lucheren\JianZhenKeJi_Road_Car_Person\app\src\main\AndroidManifest.xml
		INJECTED from D:\Documents\lucheren\JianZhenKeJi_Road_Car_Person\app\src\main\AndroidManifest.xml
	android:minSdkVersion
		ADDED from D:\Documents\lucheren\JianZhenKeJi_Road_Car_Person\app\src\main\AndroidManifest.xml:8:9-34
		INJECTED from D:\Documents\lucheren\JianZhenKeJi_Road_Car_Person\app\src\main\AndroidManifest.xml
		INJECTED from D:\Documents\lucheren\JianZhenKeJi_Road_Car_Person\app\src\main\AndroidManifest.xml
uses-permission#android.permission.READ_CONTACTS
ADDED from D:\Documents\lucheren\JianZhenKeJi_Road_Car_Person\app\src\main\AndroidManifest.xml:11:5-71
	android:name
		ADDED from D:\Documents\lucheren\JianZhenKeJi_Road_Car_Person\app\src\main\AndroidManifest.xml:11:22-69
uses-permission#android.permission.WRITE_CONTACTS
ADDED from D:\Documents\lucheren\JianZhenKeJi_Road_Car_Person\app\src\main\AndroidManifest.xml:12:5-72
	android:name
		ADDED from D:\Documents\lucheren\JianZhenKeJi_Road_Car_Person\app\src\main\AndroidManifest.xml:12:22-70
uses-permission#android.permission.READ_EXTERNAL_STORAGE
ADDED from D:\Documents\lucheren\JianZhenKeJi_Road_Car_Person\app\src\main\AndroidManifest.xml:13:5-79
	android:name
		ADDED from D:\Documents\lucheren\JianZhenKeJi_Road_Car_Person\app\src\main\AndroidManifest.xml:13:22-77
uses-permission#android.permission.WRITE_EXTERNAL_STORAGE
ADDED from D:\Documents\lucheren\JianZhenKeJi_Road_Car_Person\app\src\main\AndroidManifest.xml:15:5-80
	android:name
		ADDED from D:\Documents\lucheren\JianZhenKeJi_Road_Car_Person\app\src\main\AndroidManifest.xml:15:22-78
uses-permission#android.permission.INTERNET
ADDED from D:\Documents\lucheren\JianZhenKeJi_Road_Car_Person\app\src\main\AndroidManifest.xml:16:5-66
	android:name
		ADDED from D:\Documents\lucheren\JianZhenKeJi_Road_Car_Person\app\src\main\AndroidManifest.xml:16:22-64
uses-permission#android.permission.READ_LOGS
ADDED from D:\Documents\lucheren\JianZhenKeJi_Road_Car_Person\app\src\main\AndroidManifest.xml:17:5-67
	android:name
		ADDED from D:\Documents\lucheren\JianZhenKeJi_Road_Car_Person\app\src\main\AndroidManifest.xml:17:22-65
uses-permission#android.permission.CALL_PHONE
ADDED from D:\Documents\lucheren\JianZhenKeJi_Road_Car_Person\app\src\main\AndroidManifest.xml:18:5-68
	android:name
		ADDED from D:\Documents\lucheren\JianZhenKeJi_Road_Car_Person\app\src\main\AndroidManifest.xml:18:22-66
uses-permission#android.permission.ACCESS_FINE_LOCATION
ADDED from D:\Documents\lucheren\JianZhenKeJi_Road_Car_Person\app\src\main\AndroidManifest.xml:19:5-78
	android:name
		ADDED from D:\Documents\lucheren\JianZhenKeJi_Road_Car_Person\app\src\main\AndroidManifest.xml:19:22-76
uses-permission#android.permission.ACCESS_COARSE_LOCATION
ADDED from D:\Documents\lucheren\JianZhenKeJi_Road_Car_Person\app\src\main\AndroidManifest.xml:20:5-80
	android:name
		ADDED from D:\Documents\lucheren\JianZhenKeJi_Road_Car_Person\app\src\main\AndroidManifest.xml:20:22-78
uses-permission#android.permission.GET_TASKS
ADDED from D:\Documents\lucheren\JianZhenKeJi_Road_Car_Person\app\src\main\AndroidManifest.xml:21:5-67
	android:name
		ADDED from D:\Documents\lucheren\JianZhenKeJi_Road_Car_Person\app\src\main\AndroidManifest.xml:21:22-65
uses-permission#android.permission.SET_DEBUG_APP
ADDED from D:\Documents\lucheren\JianZhenKeJi_Road_Car_Person\app\src\main\AndroidManifest.xml:22:5-71
	android:name
		ADDED from D:\Documents\lucheren\JianZhenKeJi_Road_Car_Person\app\src\main\AndroidManifest.xml:22:22-69
uses-permission#android.permission.GET_ACCOUNTS
ADDED from D:\Documents\lucheren\JianZhenKeJi_Road_Car_Person\app\src\main\AndroidManifest.xml:23:5-70
	android:name
		ADDED from D:\Documents\lucheren\JianZhenKeJi_Road_Car_Person\app\src\main\AndroidManifest.xml:23:22-68
uses-permission#android.permission.USE_CREDENTIALS
ADDED from D:\Documents\lucheren\JianZhenKeJi_Road_Car_Person\app\src\main\AndroidManifest.xml:24:5-73
	android:name
		ADDED from D:\Documents\lucheren\JianZhenKeJi_Road_Car_Person\app\src\main\AndroidManifest.xml:24:22-71
uses-permission#android.permission.MANAGE_ACCOUNTS
ADDED from D:\Documents\lucheren\JianZhenKeJi_Road_Car_Person\app\src\main\AndroidManifest.xml:25:5-73
	android:name
		ADDED from D:\Documents\lucheren\JianZhenKeJi_Road_Car_Person\app\src\main\AndroidManifest.xml:25:22-71
permission#${applicationId}.permission.JPUSH_MESSAGE
ADDED from D:\Documents\lucheren\JianZhenKeJi_Road_Car_Person\app\src\main\AndroidManifest.xml:29:5-31:46
	android:protectionLevel
		ADDED from D:\Documents\lucheren\JianZhenKeJi_Road_Car_Person\app\src\main\AndroidManifest.xml:31:9-44
	android:name
		ADDED from D:\Documents\lucheren\JianZhenKeJi_Road_Car_Person\app\src\main\AndroidManifest.xml:30:9-65
		INJECTED from D:\Documents\lucheren\JianZhenKeJi_Road_Car_Person\app\src\main\AndroidManifest.xml
uses-permission#${applicationId}.permission.JPUSH_MESSAGE
ADDED from D:\Documents\lucheren\JianZhenKeJi_Road_Car_Person\app\src\main\AndroidManifest.xml:33:5-80
	android:name
		ADDED from D:\Documents\lucheren\JianZhenKeJi_Road_Car_Person\app\src\main\AndroidManifest.xml:33:22-78
		INJECTED from D:\Documents\lucheren\JianZhenKeJi_Road_Car_Person\app\src\main\AndroidManifest.xml
uses-permission#android.permission.RECEIVE_USER_PRESENT
ADDED from D:\Documents\lucheren\JianZhenKeJi_Road_Car_Person\app\src\main\AndroidManifest.xml:34:5-78
	android:name
		ADDED from D:\Documents\lucheren\JianZhenKeJi_Road_Car_Person\app\src\main\AndroidManifest.xml:34:22-76
uses-permission#android.permission.WAKE_LOCK
ADDED from D:\Documents\lucheren\JianZhenKeJi_Road_Car_Person\app\src\main\AndroidManifest.xml:35:5-67
	android:name
		ADDED from D:\Documents\lucheren\JianZhenKeJi_Road_Car_Person\app\src\main\AndroidManifest.xml:35:22-65
uses-permission#android.permission.WRITE_SETTINGS
ADDED from D:\Documents\lucheren\JianZhenKeJi_Road_Car_Person\app\src\main\AndroidManifest.xml:36:5-72
	android:name
		ADDED from D:\Documents\lucheren\JianZhenKeJi_Road_Car_Person\app\src\main\AndroidManifest.xml:36:22-70
uses-permission#android.permission.VIBRATE
ADDED from D:\Documents\lucheren\JianZhenKeJi_Road_Car_Person\app\src\main\AndroidManifest.xml:37:5-65
	android:name
		ADDED from D:\Documents\lucheren\JianZhenKeJi_Road_Car_Person\app\src\main\AndroidManifest.xml:37:22-63
uses-permission#android.permission.MOUNT_UNMOUNT_FILESYSTEMS
ADDED from D:\Documents\lucheren\JianZhenKeJi_Road_Car_Person\app\src\main\AndroidManifest.xml:38:5-83
	android:name
		ADDED from D:\Documents\lucheren\JianZhenKeJi_Road_Car_Person\app\src\main\AndroidManifest.xml:38:22-81
uses-permission#android.permission.ACCESS_NETWORK_STATE
ADDED from D:\Documents\lucheren\JianZhenKeJi_Road_Car_Person\app\src\main\AndroidManifest.xml:39:5-78
	android:name
		ADDED from D:\Documents\lucheren\JianZhenKeJi_Road_Car_Person\app\src\main\AndroidManifest.xml:39:22-76
uses-permission#android.permission.ACCESS_WIFI_STATE
ADDED from D:\Documents\lucheren\JianZhenKeJi_Road_Car_Person\app\src\main\AndroidManifest.xml:40:5-75
	android:name
		ADDED from D:\Documents\lucheren\JianZhenKeJi_Road_Car_Person\app\src\main\AndroidManifest.xml:40:22-73
uses-permission#android.permission.SYSTEM_ALERT_WINDOW
ADDED from D:\Documents\lucheren\JianZhenKeJi_Road_Car_Person\app\src\main\AndroidManifest.xml:41:5-77
	android:name
		ADDED from D:\Documents\lucheren\JianZhenKeJi_Road_Car_Person\app\src\main\AndroidManifest.xml:41:22-75
uses-permission#android.permission.READ_PHONE_STATE
ADDED from D:\Documents\lucheren\JianZhenKeJi_Road_Car_Person\app\src\main\AndroidManifest.xml:42:5-74
	android:name
		ADDED from D:\Documents\lucheren\JianZhenKeJi_Road_Car_Person\app\src\main\AndroidManifest.xml:42:22-72
application
ADDED from D:\Documents\lucheren\JianZhenKeJi_Road_Car_Person\app\src\main\AndroidManifest.xml:45:5-532:19
MERGED from [JianZhenKeJi_Road_Car_Person:library_calendarlibrary:unspecified] D:\Documents\lucheren\JianZhenKeJi_Road_Car_Person\app\build\intermediates\exploded-aar\JianZhenKeJi_Road_Car_Person\library_calendarlibrary\unspecified\AndroidManifest.xml:11:5-16:19
MERGED from [JianZhenKeJi_Road_Car_Person:library_pullToRefresh:unspecified] D:\Documents\lucheren\JianZhenKeJi_Road_Car_Person\app\build\intermediates\exploded-aar\JianZhenKeJi_Road_Car_Person\library_pullToRefresh\unspecified\AndroidManifest.xml:11:5-20
	android:label
		ADDED from D:\Documents\lucheren\JianZhenKeJi_Road_Car_Person\app\src\main\AndroidManifest.xml:49:9-41
	android:allowBackup
		ADDED from D:\Documents\lucheren\JianZhenKeJi_Road_Car_Person\app\src\main\AndroidManifest.xml:47:9-35
	android:icon
		ADDED from D:\Documents\lucheren\JianZhenKeJi_Road_Car_Person\app\src\main\AndroidManifest.xml:48:9-45
	android:theme
		ADDED from D:\Documents\lucheren\JianZhenKeJi_Road_Car_Person\app\src\main\AndroidManifest.xml:50:9-40
	android:name
		ADDED from D:\Documents\lucheren\JianZhenKeJi_Road_Car_Person\app\src\main\AndroidManifest.xml:46:9-38
activity#com.jzkj.jianzhenkeji_road_car_person.activity.LoginActivity
ADDED from D:\Documents\lucheren\JianZhenKeJi_Road_Car_Person\app\src\main\AndroidManifest.xml:53:9-58:20
	android:screenOrientation
		ADDED from D:\Documents\lucheren\JianZhenKeJi_Road_Car_Person\app\src\main\AndroidManifest.xml:57:13-49
	android:label
		ADDED from D:\Documents\lucheren\JianZhenKeJi_Road_Car_Person\app\src\main\AndroidManifest.xml:55:13-45
	android:launchMode
		ADDED from D:\Documents\lucheren\JianZhenKeJi_Road_Car_Person\app\src\main\AndroidManifest.xml:56:13-43
	android:name
		ADDED from D:\Documents\lucheren\JianZhenKeJi_Road_Car_Person\app\src\main\AndroidManifest.xml:54:13-51
activity#com.jzkj.jianzhenkeji_road_car_person.activity.RegistActivity
ADDED from D:\Documents\lucheren\JianZhenKeJi_Road_Car_Person\app\src\main\AndroidManifest.xml:60:9-64:20
	android:screenOrientation
		ADDED from D:\Documents\lucheren\JianZhenKeJi_Road_Car_Person\app\src\main\AndroidManifest.xml:63:13-49
	android:launchMode
		ADDED from D:\Documents\lucheren\JianZhenKeJi_Road_Car_Person\app\src\main\AndroidManifest.xml:62:13-43
	android:name
		ADDED from D:\Documents\lucheren\JianZhenKeJi_Road_Car_Person\app\src\main\AndroidManifest.xml:61:13-52
activity#com.jzkj.jianzhenkeji_road_car_person.activity.RegistSetPwActivity
ADDED from D:\Documents\lucheren\JianZhenKeJi_Road_Car_Person\app\src\main\AndroidManifest.xml:66:9-70:20
	android:screenOrientation
		ADDED from D:\Documents\lucheren\JianZhenKeJi_Road_Car_Person\app\src\main\AndroidManifest.xml:69:13-49
	android:launchMode
		ADDED from D:\Documents\lucheren\JianZhenKeJi_Road_Car_Person\app\src\main\AndroidManifest.xml:68:13-43
	android:name
		ADDED from D:\Documents\lucheren\JianZhenKeJi_Road_Car_Person\app\src\main\AndroidManifest.xml:67:13-57
activity#com.jzkj.jianzhenkeji_road_car_person.activity.HomeActivity
ADDED from D:\Documents\lucheren\JianZhenKeJi_Road_Car_Person\app\src\main\AndroidManifest.xml:72:9-76:20
	android:screenOrientation
		ADDED from D:\Documents\lucheren\JianZhenKeJi_Road_Car_Person\app\src\main\AndroidManifest.xml:75:13-49
	android:launchMode
		ADDED from D:\Documents\lucheren\JianZhenKeJi_Road_Car_Person\app\src\main\AndroidManifest.xml:74:13-43
	android:name
		ADDED from D:\Documents\lucheren\JianZhenKeJi_Road_Car_Person\app\src\main\AndroidManifest.xml:73:13-50
activity#com.jzkj.jianzhenkeji_road_car_person.activity.Blank
ADDED from D:\Documents\lucheren\JianZhenKeJi_Road_Car_Person\app\src\main\AndroidManifest.xml:78:9-82:20
	android:screenOrientation
		ADDED from D:\Documents\lucheren\JianZhenKeJi_Road_Car_Person\app\src\main\AndroidManifest.xml:81:13-49
	android:launchMode
		ADDED from D:\Documents\lucheren\JianZhenKeJi_Road_Car_Person\app\src\main\AndroidManifest.xml:80:13-43
	android:name
		ADDED from D:\Documents\lucheren\JianZhenKeJi_Road_Car_Person\app\src\main\AndroidManifest.xml:79:13-43
activity#com.jzkj.jianzhenkeji_road_car_person.activity.ExamActivity
ADDED from D:\Documents\lucheren\JianZhenKeJi_Road_Car_Person\app\src\main\AndroidManifest.xml:84:9-88:20
	android:screenOrientation
		ADDED from D:\Documents\lucheren\JianZhenKeJi_Road_Car_Person\app\src\main\AndroidManifest.xml:87:13-49
	android:launchMode
		ADDED from D:\Documents\lucheren\JianZhenKeJi_Road_Car_Person\app\src\main\AndroidManifest.xml:86:13-43
	android:name
		ADDED from D:\Documents\lucheren\JianZhenKeJi_Road_Car_Person\app\src\main\AndroidManifest.xml:85:13-50
activity#com.jzkj.jianzhenkeji_road_car_person.activity.MyDataActivity
ADDED from D:\Documents\lucheren\JianZhenKeJi_Road_Car_Person\app\src\main\AndroidManifest.xml:90:9-94:20
	android:screenOrientation
		ADDED from D:\Documents\lucheren\JianZhenKeJi_Road_Car_Person\app\src\main\AndroidManifest.xml:93:13-49
	android:launchMode
		ADDED from D:\Documents\lucheren\JianZhenKeJi_Road_Car_Person\app\src\main\AndroidManifest.xml:92:13-43
	android:name
		ADDED from D:\Documents\lucheren\JianZhenKeJi_Road_Car_Person\app\src\main\AndroidManifest.xml:91:13-52
activity#com.jzkj.jianzhenkeji_road_car_person.activity.ExamResultActivity
ADDED from D:\Documents\lucheren\JianZhenKeJi_Road_Car_Person\app\src\main\AndroidManifest.xml:96:9-100:20
	android:screenOrientation
		ADDED from D:\Documents\lucheren\JianZhenKeJi_Road_Car_Person\app\src\main\AndroidManifest.xml:99:13-49
	android:launchMode
		ADDED from D:\Documents\lucheren\JianZhenKeJi_Road_Car_Person\app\src\main\AndroidManifest.xml:98:13-43
	android:name
		ADDED from D:\Documents\lucheren\JianZhenKeJi_Road_Car_Person\app\src\main\AndroidManifest.xml:97:13-56
activity#com.jzkj.jianzhenkeji_road_car_person.activity.SetingActivity
ADDED from D:\Documents\lucheren\JianZhenKeJi_Road_Car_Person\app\src\main\AndroidManifest.xml:102:9-106:20
	android:screenOrientation
		ADDED from D:\Documents\lucheren\JianZhenKeJi_Road_Car_Person\app\src\main\AndroidManifest.xml:105:13-49
	android:launchMode
		ADDED from D:\Documents\lucheren\JianZhenKeJi_Road_Car_Person\app\src\main\AndroidManifest.xml:104:13-43
	android:name
		ADDED from D:\Documents\lucheren\JianZhenKeJi_Road_Car_Person\app\src\main\AndroidManifest.xml:103:13-52
activity#com.jzkj.jianzhenkeji_road_car_person.activity.LookroomRecordActivity
ADDED from D:\Documents\lucheren\JianZhenKeJi_Road_Car_Person\app\src\main\AndroidManifest.xml:108:9-112:20
	android:screenOrientation
		ADDED from D:\Documents\lucheren\JianZhenKeJi_Road_Car_Person\app\src\main\AndroidManifest.xml:111:13-49
	android:launchMode
		ADDED from D:\Documents\lucheren\JianZhenKeJi_Road_Car_Person\app\src\main\AndroidManifest.xml:110:13-43
	android:name
		ADDED from D:\Documents\lucheren\JianZhenKeJi_Road_Car_Person\app\src\main\AndroidManifest.xml:109:13-60
activity#com.jzkj.jianzhenkeji_road_car_person.activity.MyNewsActivity
ADDED from D:\Documents\lucheren\JianZhenKeJi_Road_Car_Person\app\src\main\AndroidManifest.xml:114:9-118:20
	android:screenOrientation
		ADDED from D:\Documents\lucheren\JianZhenKeJi_Road_Car_Person\app\src\main\AndroidManifest.xml:117:13-49
	android:launchMode
		ADDED from D:\Documents\lucheren\JianZhenKeJi_Road_Car_Person\app\src\main\AndroidManifest.xml:116:13-43
	android:name
		ADDED from D:\Documents\lucheren\JianZhenKeJi_Road_Car_Person\app\src\main\AndroidManifest.xml:115:13-52
activity#com.jzkj.jianzhenkeji_road_car_person.activity.MyOrderActivity
ADDED from D:\Documents\lucheren\JianZhenKeJi_Road_Car_Person\app\src\main\AndroidManifest.xml:120:9-124:20
	android:screenOrientation
		ADDED from D:\Documents\lucheren\JianZhenKeJi_Road_Car_Person\app\src\main\AndroidManifest.xml:123:13-49
	android:launchMode
		ADDED from D:\Documents\lucheren\JianZhenKeJi_Road_Car_Person\app\src\main\AndroidManifest.xml:122:13-43
	android:name
		ADDED from D:\Documents\lucheren\JianZhenKeJi_Road_Car_Person\app\src\main\AndroidManifest.xml:121:13-53
activity#com.jzkj.jianzhenkeji_road_car_person.activity.FeedBackActivity
ADDED from D:\Documents\lucheren\JianZhenKeJi_Road_Car_Person\app\src\main\AndroidManifest.xml:126:9-130:20
	android:screenOrientation
		ADDED from D:\Documents\lucheren\JianZhenKeJi_Road_Car_Person\app\src\main\AndroidManifest.xml:129:13-49
	android:launchMode
		ADDED from D:\Documents\lucheren\JianZhenKeJi_Road_Car_Person\app\src\main\AndroidManifest.xml:128:13-43
	android:name
		ADDED from D:\Documents\lucheren\JianZhenKeJi_Road_Car_Person\app\src\main\AndroidManifest.xml:127:13-54
activity#com.jzkj.jianzhenkeji_road_car_person.activity.ChooseSafetyActivity
ADDED from D:\Documents\lucheren\JianZhenKeJi_Road_Car_Person\app\src\main\AndroidManifest.xml:132:9-136:20
	android:screenOrientation
		ADDED from D:\Documents\lucheren\JianZhenKeJi_Road_Car_Person\app\src\main\AndroidManifest.xml:135:13-49
	android:launchMode
		ADDED from D:\Documents\lucheren\JianZhenKeJi_Road_Car_Person\app\src\main\AndroidManifest.xml:134:13-43
	android:name
		ADDED from D:\Documents\lucheren\JianZhenKeJi_Road_Car_Person\app\src\main\AndroidManifest.xml:133:13-58
activity#com.jzkj.jianzhenkeji_road_car_person.activity.MyEvaluateActivity
ADDED from D:\Documents\lucheren\JianZhenKeJi_Road_Car_Person\app\src\main\AndroidManifest.xml:138:9-142:20
	android:screenOrientation
		ADDED from D:\Documents\lucheren\JianZhenKeJi_Road_Car_Person\app\src\main\AndroidManifest.xml:141:13-49
	android:launchMode
		ADDED from D:\Documents\lucheren\JianZhenKeJi_Road_Car_Person\app\src\main\AndroidManifest.xml:140:13-43
	android:name
		ADDED from D:\Documents\lucheren\JianZhenKeJi_Road_Car_Person\app\src\main\AndroidManifest.xml:139:13-56
activity#com.jzkj.jianzhenkeji_road_car_person.activity.PayPageActivity
ADDED from D:\Documents\lucheren\JianZhenKeJi_Road_Car_Person\app\src\main\AndroidManifest.xml:144:9-148:20
	android:screenOrientation
		ADDED from D:\Documents\lucheren\JianZhenKeJi_Road_Car_Person\app\src\main\AndroidManifest.xml:147:13-49
	android:launchMode
		ADDED from D:\Documents\lucheren\JianZhenKeJi_Road_Car_Person\app\src\main\AndroidManifest.xml:146:13-43
	android:name
		ADDED from D:\Documents\lucheren\JianZhenKeJi_Road_Car_Person\app\src\main\AndroidManifest.xml:145:13-53
activity#com.jzkj.jianzhenkeji_road_car_person.activity.ExamDetailsActivity
ADDED from D:\Documents\lucheren\JianZhenKeJi_Road_Car_Person\app\src\main\AndroidManifest.xml:150:9-154:20
	android:screenOrientation
		ADDED from D:\Documents\lucheren\JianZhenKeJi_Road_Car_Person\app\src\main\AndroidManifest.xml:153:13-49
	android:launchMode
		ADDED from D:\Documents\lucheren\JianZhenKeJi_Road_Car_Person\app\src\main\AndroidManifest.xml:152:13-43
	android:name
		ADDED from D:\Documents\lucheren\JianZhenKeJi_Road_Car_Person\app\src\main\AndroidManifest.xml:151:13-57
activity#com.jzkj.jianzhenkeji_road_car_person.activity.OrderRoomListActivity
ADDED from D:\Documents\lucheren\JianZhenKeJi_Road_Car_Person\app\src\main\AndroidManifest.xml:156:9-160:20
	android:screenOrientation
		ADDED from D:\Documents\lucheren\JianZhenKeJi_Road_Car_Person\app\src\main\AndroidManifest.xml:159:13-49
	android:launchMode
		ADDED from D:\Documents\lucheren\JianZhenKeJi_Road_Car_Person\app\src\main\AndroidManifest.xml:158:13-43
	android:name
		ADDED from D:\Documents\lucheren\JianZhenKeJi_Road_Car_Person\app\src\main\AndroidManifest.xml:157:13-59
activity#com.jzkj.jianzhenkeji_road_car_person.activity.OrderCoachListActivity
ADDED from D:\Documents\lucheren\JianZhenKeJi_Road_Car_Person\app\src\main\AndroidManifest.xml:162:9-166:20
	android:screenOrientation
		ADDED from D:\Documents\lucheren\JianZhenKeJi_Road_Car_Person\app\src\main\AndroidManifest.xml:165:13-49
	android:launchMode
		ADDED from D:\Documents\lucheren\JianZhenKeJi_Road_Car_Person\app\src\main\AndroidManifest.xml:164:13-43
	android:name
		ADDED from D:\Documents\lucheren\JianZhenKeJi_Road_Car_Person\app\src\main\AndroidManifest.xml:163:13-60
activity#com.jzkj.jianzhenkeji_road_car_person.activity.MyDrivingSchoolActivity
ADDED from D:\Documents\lucheren\JianZhenKeJi_Road_Car_Person\app\src\main\AndroidManifest.xml:167:9-171:20
	android:screenOrientation
		ADDED from D:\Documents\lucheren\JianZhenKeJi_Road_Car_Person\app\src\main\AndroidManifest.xml:170:13-49
	android:launchMode
		ADDED from D:\Documents\lucheren\JianZhenKeJi_Road_Car_Person\app\src\main\AndroidManifest.xml:169:13-43
	android:name
		ADDED from D:\Documents\lucheren\JianZhenKeJi_Road_Car_Person\app\src\main\AndroidManifest.xml:168:13-61
activity#com.jzkj.jianzhenkeji_road_car_person.activity.MyCollectActivity
ADDED from D:\Documents\lucheren\JianZhenKeJi_Road_Car_Person\app\src\main\AndroidManifest.xml:172:9-176:20
	android:screenOrientation
		ADDED from D:\Documents\lucheren\JianZhenKeJi_Road_Car_Person\app\src\main\AndroidManifest.xml:175:13-49
	android:launchMode
		ADDED from D:\Documents\lucheren\JianZhenKeJi_Road_Car_Person\app\src\main\AndroidManifest.xml:174:13-43
	android:name
		ADDED from D:\Documents\lucheren\JianZhenKeJi_Road_Car_Person\app\src\main\AndroidManifest.xml:173:13-55
activity#com.jzkj.jianzhenkeji_road_car_person.activity.MySystemNewsActivity
ADDED from D:\Documents\lucheren\JianZhenKeJi_Road_Car_Person\app\src\main\AndroidManifest.xml:177:9-181:20
	android:screenOrientation
		ADDED from D:\Documents\lucheren\JianZhenKeJi_Road_Car_Person\app\src\main\AndroidManifest.xml:180:13-49
	android:launchMode
		ADDED from D:\Documents\lucheren\JianZhenKeJi_Road_Car_Person\app\src\main\AndroidManifest.xml:179:13-43
	android:name
		ADDED from D:\Documents\lucheren\JianZhenKeJi_Road_Car_Person\app\src\main\AndroidManifest.xml:178:13-58
activity#com.jzkj.jianzhenkeji_road_car_person.activity.MyOrderNewsDetailsActivity
ADDED from D:\Documents\lucheren\JianZhenKeJi_Road_Car_Person\app\src\main\AndroidManifest.xml:182:9-186:20
	android:screenOrientation
		ADDED from D:\Documents\lucheren\JianZhenKeJi_Road_Car_Person\app\src\main\AndroidManifest.xml:185:13-49
	android:launchMode
		ADDED from D:\Documents\lucheren\JianZhenKeJi_Road_Car_Person\app\src\main\AndroidManifest.xml:184:13-43
	android:name
		ADDED from D:\Documents\lucheren\JianZhenKeJi_Road_Car_Person\app\src\main\AndroidManifest.xml:183:13-64
activity#com.jzkj.jianzhenkeji_road_car_person.activity.OrderRoomInfoActivity
ADDED from D:\Documents\lucheren\JianZhenKeJi_Road_Car_Person\app\src\main\AndroidManifest.xml:187:9-191:20
	android:screenOrientation
		ADDED from D:\Documents\lucheren\JianZhenKeJi_Road_Car_Person\app\src\main\AndroidManifest.xml:190:13-49
	android:launchMode
		ADDED from D:\Documents\lucheren\JianZhenKeJi_Road_Car_Person\app\src\main\AndroidManifest.xml:189:13-43
	android:name
		ADDED from D:\Documents\lucheren\JianZhenKeJi_Road_Car_Person\app\src\main\AndroidManifest.xml:188:13-59
activity#com.jzkj.jianzhenkeji_road_car_person.activity.ForgetPasswordActivity
ADDED from D:\Documents\lucheren\JianZhenKeJi_Road_Car_Person\app\src\main\AndroidManifest.xml:192:9-196:20
	android:screenOrientation
		ADDED from D:\Documents\lucheren\JianZhenKeJi_Road_Car_Person\app\src\main\AndroidManifest.xml:195:13-49
	android:launchMode
		ADDED from D:\Documents\lucheren\JianZhenKeJi_Road_Car_Person\app\src\main\AndroidManifest.xml:194:13-43
	android:name
		ADDED from D:\Documents\lucheren\JianZhenKeJi_Road_Car_Person\app\src\main\AndroidManifest.xml:193:13-60
activity#com.jzkj.jianzhenkeji_road_car_person.activity.GuideActivity
ADDED from D:\Documents\lucheren\JianZhenKeJi_Road_Car_Person\app\src\main\AndroidManifest.xml:197:9-201:20
	android:screenOrientation
		ADDED from D:\Documents\lucheren\JianZhenKeJi_Road_Car_Person\app\src\main\AndroidManifest.xml:200:13-49
	android:launchMode
		ADDED from D:\Documents\lucheren\JianZhenKeJi_Road_Car_Person\app\src\main\AndroidManifest.xml:199:13-43
	android:name
		ADDED from D:\Documents\lucheren\JianZhenKeJi_Road_Car_Person\app\src\main\AndroidManifest.xml:198:13-51
activity#com.jzkj.jianzhenkeji_road_car_person.activity.SplashActivity
ADDED from D:\Documents\lucheren\JianZhenKeJi_Road_Car_Person\app\src\main\AndroidManifest.xml:202:9-212:20
	android:screenOrientation
		ADDED from D:\Documents\lucheren\JianZhenKeJi_Road_Car_Person\app\src\main\AndroidManifest.xml:205:13-49
	android:launchMode
		ADDED from D:\Documents\lucheren\JianZhenKeJi_Road_Car_Person\app\src\main\AndroidManifest.xml:204:13-43
	android:theme
		ADDED from D:\Documents\lucheren\JianZhenKeJi_Road_Car_Person\app\src\main\AndroidManifest.xml:206:13-47
	android:name
		ADDED from D:\Documents\lucheren\JianZhenKeJi_Road_Car_Person\app\src\main\AndroidManifest.xml:203:13-52
intent-filter#android.intent.action.MAIN+android.intent.category.LAUNCHER
ADDED from D:\Documents\lucheren\JianZhenKeJi_Road_Car_Person\app\src\main\AndroidManifest.xml:207:13-211:29
action#android.intent.action.MAIN
ADDED from D:\Documents\lucheren\JianZhenKeJi_Road_Car_Person\app\src\main\AndroidManifest.xml:208:17-68
	android:name
		ADDED from D:\Documents\lucheren\JianZhenKeJi_Road_Car_Person\app\src\main\AndroidManifest.xml:208:25-66
category#android.intent.category.LAUNCHER
ADDED from D:\Documents\lucheren\JianZhenKeJi_Road_Car_Person\app\src\main\AndroidManifest.xml:210:17-76
	android:name
		ADDED from D:\Documents\lucheren\JianZhenKeJi_Road_Car_Person\app\src\main\AndroidManifest.xml:210:27-74
activity#com.jzkj.jianzhenkeji_road_car_person.activity.NotDoneActivity
ADDED from D:\Documents\lucheren\JianZhenKeJi_Road_Car_Person\app\src\main\AndroidManifest.xml:213:9-217:20
	android:screenOrientation
		ADDED from D:\Documents\lucheren\JianZhenKeJi_Road_Car_Person\app\src\main\AndroidManifest.xml:216:13-49
	android:launchMode
		ADDED from D:\Documents\lucheren\JianZhenKeJi_Road_Car_Person\app\src\main\AndroidManifest.xml:215:13-43
	android:name
		ADDED from D:\Documents\lucheren\JianZhenKeJi_Road_Car_Person\app\src\main\AndroidManifest.xml:214:13-53
activity#com.jzkj.jianzhenkeji_road_car_person.activity.ModifyPasswordActivity
ADDED from D:\Documents\lucheren\JianZhenKeJi_Road_Car_Person\app\src\main\AndroidManifest.xml:218:9-222:20
	android:screenOrientation
		ADDED from D:\Documents\lucheren\JianZhenKeJi_Road_Car_Person\app\src\main\AndroidManifest.xml:221:13-49
	android:launchMode
		ADDED from D:\Documents\lucheren\JianZhenKeJi_Road_Car_Person\app\src\main\AndroidManifest.xml:220:13-43
	android:name
		ADDED from D:\Documents\lucheren\JianZhenKeJi_Road_Car_Person\app\src\main\AndroidManifest.xml:219:13-60
activity#com.jzkj.jianzhenkeji_road_car_person.activity.ClassActivity
ADDED from D:\Documents\lucheren\JianZhenKeJi_Road_Car_Person\app\src\main\AndroidManifest.xml:223:9-227:20
	android:screenOrientation
		ADDED from D:\Documents\lucheren\JianZhenKeJi_Road_Car_Person\app\src\main\AndroidManifest.xml:226:13-49
	android:launchMode
		ADDED from D:\Documents\lucheren\JianZhenKeJi_Road_Car_Person\app\src\main\AndroidManifest.xml:225:13-43
	android:name
		ADDED from D:\Documents\lucheren\JianZhenKeJi_Road_Car_Person\app\src\main\AndroidManifest.xml:224:13-51
meta-data#UMENG_APPKEY
ADDED from D:\Documents\lucheren\JianZhenKeJi_Road_Car_Person\app\src\main\AndroidManifest.xml:229:9-232:21
	android:value
		ADDED from D:\Documents\lucheren\JianZhenKeJi_Road_Car_Person\app\src\main\AndroidManifest.xml:231:13-53
	android:name
		ADDED from D:\Documents\lucheren\JianZhenKeJi_Road_Car_Person\app\src\main\AndroidManifest.xml:230:13-40
activity#com.umeng.socialize.editorpage.ShareActivity
ADDED from D:\Documents\lucheren\JianZhenKeJi_Road_Car_Person\app\src\main\AndroidManifest.xml:234:9-238:53
	android:screenOrientation
		ADDED from D:\Documents\lucheren\JianZhenKeJi_Road_Car_Person\app\src\main\AndroidManifest.xml:237:13-49
	android:excludeFromRecents
		ADDED from D:\Documents\lucheren\JianZhenKeJi_Road_Car_Person\app\src\main\AndroidManifest.xml:236:13-46
	android:theme
		ADDED from D:\Documents\lucheren\JianZhenKeJi_Road_Car_Person\app\src\main\AndroidManifest.xml:238:13-51
	android:name
		ADDED from D:\Documents\lucheren\JianZhenKeJi_Road_Car_Person\app\src\main\AndroidManifest.xml:235:13-72
activity#com.jzkj.jianzhenkeji_road_car_person.wxapi.WXEntryActivity
ADDED from D:\Documents\lucheren\JianZhenKeJi_Road_Car_Person\app\src\main\AndroidManifest.xml:240:9-245:74
	android:screenOrientation
		ADDED from D:\Documents\lucheren\JianZhenKeJi_Road_Car_Person\app\src\main\AndroidManifest.xml:244:13-49
	android:exported
		ADDED from D:\Documents\lucheren\JianZhenKeJi_Road_Car_Person\app\src\main\AndroidManifest.xml:243:13-36
	android:configChanges
		ADDED from D:\Documents\lucheren\JianZhenKeJi_Road_Car_Person\app\src\main\AndroidManifest.xml:242:13-74
	android:theme
		ADDED from D:\Documents\lucheren\JianZhenKeJi_Road_Car_Person\app\src\main\AndroidManifest.xml:245:13-72
	android:name
		ADDED from D:\Documents\lucheren\JianZhenKeJi_Road_Car_Person\app\src\main\AndroidManifest.xml:241:13-50
activity#com.jzkj.jianzhenkeji_road_car_person.WBShareActivity
ADDED from D:\Documents\lucheren\JianZhenKeJi_Road_Car_Person\app\src\main\AndroidManifest.xml:247:9-256:20
	android:screenOrientation
		ADDED from D:\Documents\lucheren\JianZhenKeJi_Road_Car_Person\app\src\main\AndroidManifest.xml:250:13-49
	android:configChanges
		ADDED from D:\Documents\lucheren\JianZhenKeJi_Road_Car_Person\app\src\main\AndroidManifest.xml:249:13-63
	android:name
		ADDED from D:\Documents\lucheren\JianZhenKeJi_Road_Car_Person\app\src\main\AndroidManifest.xml:248:13-44
intent-filter#android.intent.category.DEFAULT+com.sina.weibo.sdk.action.ACTION_SDK_REQ_ACTIVITY
ADDED from D:\Documents\lucheren\JianZhenKeJi_Road_Car_Person\app\src\main\AndroidManifest.xml:251:13-255:29
action#com.sina.weibo.sdk.action.ACTION_SDK_REQ_ACTIVITY
ADDED from D:\Documents\lucheren\JianZhenKeJi_Road_Car_Person\app\src\main\AndroidManifest.xml:252:17-91
	android:name
		ADDED from D:\Documents\lucheren\JianZhenKeJi_Road_Car_Person\app\src\main\AndroidManifest.xml:252:25-89
category#android.intent.category.DEFAULT
ADDED from D:\Documents\lucheren\JianZhenKeJi_Road_Car_Person\app\src\main\AndroidManifest.xml:254:17-75
	android:name
		ADDED from D:\Documents\lucheren\JianZhenKeJi_Road_Car_Person\app\src\main\AndroidManifest.xml:254:27-73
activity#com.sina.weibo.sdk.component.WeiboSdkBrowser
ADDED from D:\Documents\lucheren\JianZhenKeJi_Road_Car_Person\app\src\main\AndroidManifest.xml:257:9-262:20
	android:exported
		ADDED from D:\Documents\lucheren\JianZhenKeJi_Road_Car_Person\app\src\main\AndroidManifest.xml:260:13-37
	android:windowSoftInputMode
		ADDED from D:\Documents\lucheren\JianZhenKeJi_Road_Car_Person\app\src\main\AndroidManifest.xml:261:13-55
	android:configChanges
		ADDED from D:\Documents\lucheren\JianZhenKeJi_Road_Car_Person\app\src\main\AndroidManifest.xml:259:13-63
	android:name
		ADDED from D:\Documents\lucheren\JianZhenKeJi_Road_Car_Person\app\src\main\AndroidManifest.xml:258:13-72
service#com.sina.weibo.sdk.net.DownloadService
ADDED from D:\Documents\lucheren\JianZhenKeJi_Road_Car_Person\app\src\main\AndroidManifest.xml:264:9-267:19
	android:exported
		ADDED from D:\Documents\lucheren\JianZhenKeJi_Road_Car_Person\app\src\main\AndroidManifest.xml:266:13-37
	android:name
		ADDED from D:\Documents\lucheren\JianZhenKeJi_Road_Car_Person\app\src\main\AndroidManifest.xml:265:13-66
activity#com.tencent.tauth.AuthActivity
ADDED from D:\Documents\lucheren\JianZhenKeJi_Road_Car_Person\app\src\main\AndroidManifest.xml:270:9-282:20
	android:launchMode
		ADDED from D:\Documents\lucheren\JianZhenKeJi_Road_Car_Person\app\src\main\AndroidManifest.xml:272:13-44
	android:noHistory
		ADDED from D:\Documents\lucheren\JianZhenKeJi_Road_Car_Person\app\src\main\AndroidManifest.xml:273:13-37
	android:name
		ADDED from D:\Documents\lucheren\JianZhenKeJi_Road_Car_Person\app\src\main\AndroidManifest.xml:271:13-58
intent-filter#android.intent.action.VIEW+android.intent.category.BROWSABLE+android.intent.category.DEFAULT
ADDED from D:\Documents\lucheren\JianZhenKeJi_Road_Car_Person\app\src\main\AndroidManifest.xml:274:13-281:29
action#android.intent.action.VIEW
ADDED from D:\Documents\lucheren\JianZhenKeJi_Road_Car_Person\app\src\main\AndroidManifest.xml:275:17-68
	android:name
		ADDED from D:\Documents\lucheren\JianZhenKeJi_Road_Car_Person\app\src\main\AndroidManifest.xml:275:25-66
category#android.intent.category.BROWSABLE
ADDED from D:\Documents\lucheren\JianZhenKeJi_Road_Car_Person\app\src\main\AndroidManifest.xml:278:17-77
	android:name
		ADDED from D:\Documents\lucheren\JianZhenKeJi_Road_Car_Person\app\src\main\AndroidManifest.xml:278:27-75
data
ADDED from D:\Documents\lucheren\JianZhenKeJi_Road_Car_Person\app\src\main\AndroidManifest.xml:280:17-59
	android:scheme
		ADDED from D:\Documents\lucheren\JianZhenKeJi_Road_Car_Person\app\src\main\AndroidManifest.xml:280:23-57
activity#com.tencent.connect.common.AssistActivity
ADDED from D:\Documents\lucheren\JianZhenKeJi_Road_Car_Person\app\src\main\AndroidManifest.xml:283:9-286:74
	android:screenOrientation
		ADDED from D:\Documents\lucheren\JianZhenKeJi_Road_Car_Person\app\src\main\AndroidManifest.xml:285:13-49
	android:theme
		ADDED from D:\Documents\lucheren\JianZhenKeJi_Road_Car_Person\app\src\main\AndroidManifest.xml:286:13-72
	android:name
		ADDED from D:\Documents\lucheren\JianZhenKeJi_Road_Car_Person\app\src\main\AndroidManifest.xml:284:13-69
activity#cn.jpush.android.ui.PopWinActivity
ADDED from D:\Documents\lucheren\JianZhenKeJi_Road_Car_Person\app\src\main\AndroidManifest.xml:291:9-294:51
	android:exported
		ADDED from D:\Documents\lucheren\JianZhenKeJi_Road_Car_Person\app\src\main\AndroidManifest.xml:293:13-37
	android:theme
		ADDED from D:\Documents\lucheren\JianZhenKeJi_Road_Car_Person\app\src\main\AndroidManifest.xml:294:13-49
	android:name
		ADDED from D:\Documents\lucheren\JianZhenKeJi_Road_Car_Person\app\src\main\AndroidManifest.xml:292:13-62
activity#cn.jpush.android.ui.PushActivity
ADDED from D:\Documents\lucheren\JianZhenKeJi_Road_Car_Person\app\src\main\AndroidManifest.xml:297:9-308:20
	android:exported
		ADDED from D:\Documents\lucheren\JianZhenKeJi_Road_Car_Person\app\src\main\AndroidManifest.xml:300:13-37
	android:configChanges
		ADDED from D:\Documents\lucheren\JianZhenKeJi_Road_Car_Person\app\src\main\AndroidManifest.xml:299:13-63
	android:theme
		ADDED from D:\Documents\lucheren\JianZhenKeJi_Road_Car_Person\app\src\main\AndroidManifest.xml:301:13-60
	android:name
		ADDED from D:\Documents\lucheren\JianZhenKeJi_Road_Car_Person\app\src\main\AndroidManifest.xml:298:13-60
intent-filter#${applicationId}+android.intent.category.DEFAULT+cn.jpush.android.ui.PushActivity
ADDED from D:\Documents\lucheren\JianZhenKeJi_Road_Car_Person\app\src\main\AndroidManifest.xml:302:13-307:29
action#cn.jpush.android.ui.PushActivity
ADDED from D:\Documents\lucheren\JianZhenKeJi_Road_Car_Person\app\src\main\AndroidManifest.xml:303:17-74
	android:name
		ADDED from D:\Documents\lucheren\JianZhenKeJi_Road_Car_Person\app\src\main\AndroidManifest.xml:303:25-72
category#${applicationId}
ADDED from D:\Documents\lucheren\JianZhenKeJi_Road_Car_Person\app\src\main\AndroidManifest.xml:306:17-60
	android:name
		ADDED from D:\Documents\lucheren\JianZhenKeJi_Road_Car_Person\app\src\main\AndroidManifest.xml:306:27-58
		INJECTED from D:\Documents\lucheren\JianZhenKeJi_Road_Car_Person\app\src\main\AndroidManifest.xml
		INJECTED from D:\Documents\lucheren\JianZhenKeJi_Road_Car_Person\app\src\main\AndroidManifest.xml
		INJECTED from D:\Documents\lucheren\JianZhenKeJi_Road_Car_Person\app\src\main\AndroidManifest.xml
		INJECTED from D:\Documents\lucheren\JianZhenKeJi_Road_Car_Person\app\src\main\AndroidManifest.xml
service#cn.jpush.android.service.DownloadService
ADDED from D:\Documents\lucheren\JianZhenKeJi_Road_Car_Person\app\src\main\AndroidManifest.xml:311:9-314:39
	android:enabled
		ADDED from D:\Documents\lucheren\JianZhenKeJi_Road_Car_Person\app\src\main\AndroidManifest.xml:313:13-35
	android:exported
		ADDED from D:\Documents\lucheren\JianZhenKeJi_Road_Car_Person\app\src\main\AndroidManifest.xml:314:13-37
	android:name
		ADDED from D:\Documents\lucheren\JianZhenKeJi_Road_Car_Person\app\src\main\AndroidManifest.xml:312:13-68
service#cn.jpush.android.service.PushService
ADDED from D:\Documents\lucheren\JianZhenKeJi_Road_Car_Person\app\src\main\AndroidManifest.xml:318:9-328:19
	android:enabled
		ADDED from D:\Documents\lucheren\JianZhenKeJi_Road_Car_Person\app\src\main\AndroidManifest.xml:320:13-35
	android:exported
		ADDED from D:\Documents\lucheren\JianZhenKeJi_Road_Car_Person\app\src\main\AndroidManifest.xml:321:13-37
	android:name
		ADDED from D:\Documents\lucheren\JianZhenKeJi_Road_Car_Person\app\src\main\AndroidManifest.xml:319:13-64
intent-filter#cn.jpush.android.intent.PUSH_TIME+cn.jpush.android.intent.PushService+cn.jpush.android.intent.REGISTER+cn.jpush.android.intent.REPORT
ADDED from D:\Documents\lucheren\JianZhenKeJi_Road_Car_Person\app\src\main\AndroidManifest.xml:322:13-327:29
action#cn.jpush.android.intent.REGISTER
ADDED from D:\Documents\lucheren\JianZhenKeJi_Road_Car_Person\app\src\main\AndroidManifest.xml:323:17-74
	android:name
		ADDED from D:\Documents\lucheren\JianZhenKeJi_Road_Car_Person\app\src\main\AndroidManifest.xml:323:25-72
action#cn.jpush.android.intent.REPORT
ADDED from D:\Documents\lucheren\JianZhenKeJi_Road_Car_Person\app\src\main\AndroidManifest.xml:324:17-72
	android:name
		ADDED from D:\Documents\lucheren\JianZhenKeJi_Road_Car_Person\app\src\main\AndroidManifest.xml:324:25-70
action#cn.jpush.android.intent.PushService
ADDED from D:\Documents\lucheren\JianZhenKeJi_Road_Car_Person\app\src\main\AndroidManifest.xml:325:17-77
	android:name
		ADDED from D:\Documents\lucheren\JianZhenKeJi_Road_Car_Person\app\src\main\AndroidManifest.xml:325:25-75
action#cn.jpush.android.intent.PUSH_TIME
ADDED from D:\Documents\lucheren\JianZhenKeJi_Road_Car_Person\app\src\main\AndroidManifest.xml:326:17-75
	android:name
		ADDED from D:\Documents\lucheren\JianZhenKeJi_Road_Car_Person\app\src\main\AndroidManifest.xml:326:25-73
service#cn.jpush.android.service.DaemonService
ADDED from D:\Documents\lucheren\JianZhenKeJi_Road_Car_Person\app\src\main\AndroidManifest.xml:335:9-344:19
	android:enabled
		ADDED from D:\Documents\lucheren\JianZhenKeJi_Road_Car_Person\app\src\main\AndroidManifest.xml:337:13-35
	android:exported
		ADDED from D:\Documents\lucheren\JianZhenKeJi_Road_Car_Person\app\src\main\AndroidManifest.xml:338:13-36
	android:name
		ADDED from D:\Documents\lucheren\JianZhenKeJi_Road_Car_Person\app\src\main\AndroidManifest.xml:336:13-66
intent-filter#${applicationId}+cn.jpush.android.intent.DaemonService
ADDED from D:\Documents\lucheren\JianZhenKeJi_Road_Car_Person\app\src\main\AndroidManifest.xml:339:13-343:29
action#cn.jpush.android.intent.DaemonService
ADDED from D:\Documents\lucheren\JianZhenKeJi_Road_Car_Person\app\src\main\AndroidManifest.xml:340:17-79
	android:name
		ADDED from D:\Documents\lucheren\JianZhenKeJi_Road_Car_Person\app\src\main\AndroidManifest.xml:340:25-77
receiver#cn.jpush.android.service.PushReceiver
ADDED from D:\Documents\lucheren\JianZhenKeJi_Road_Car_Person\app\src\main\AndroidManifest.xml:347:9-371:20
	android:enabled
		ADDED from D:\Documents\lucheren\JianZhenKeJi_Road_Car_Person\app\src\main\AndroidManifest.xml:349:13-35
	android:exported
		ADDED from D:\Documents\lucheren\JianZhenKeJi_Road_Car_Person\app\src\main\AndroidManifest.xml:350:13-37
	android:name
		ADDED from D:\Documents\lucheren\JianZhenKeJi_Road_Car_Person\app\src\main\AndroidManifest.xml:348:13-65
intent-filter#${applicationId}+cn.jpush.android.intent.NOTIFICATION_RECEIVED_PROXY
ADDED from D:\Documents\lucheren\JianZhenKeJi_Road_Car_Person\app\src\main\AndroidManifest.xml:351:13-357:29
	android:priority
		ADDED from D:\Documents\lucheren\JianZhenKeJi_Road_Car_Person\app\src\main\AndroidManifest.xml:351:28-51
action#cn.jpush.android.intent.NOTIFICATION_RECEIVED_PROXY
ADDED from D:\Documents\lucheren\JianZhenKeJi_Road_Car_Person\app\src\main\AndroidManifest.xml:352:17-93
	android:name
		ADDED from D:\Documents\lucheren\JianZhenKeJi_Road_Car_Person\app\src\main\AndroidManifest.xml:352:25-91
intent-filter#android.intent.action.USER_PRESENT+android.net.conn.CONNECTIVITY_CHANGE
ADDED from D:\Documents\lucheren\JianZhenKeJi_Road_Car_Person\app\src\main\AndroidManifest.xml:358:13-361:29
action#android.intent.action.USER_PRESENT
ADDED from D:\Documents\lucheren\JianZhenKeJi_Road_Car_Person\app\src\main\AndroidManifest.xml:359:17-76
	android:name
		ADDED from D:\Documents\lucheren\JianZhenKeJi_Road_Car_Person\app\src\main\AndroidManifest.xml:359:25-74
action#android.net.conn.CONNECTIVITY_CHANGE
ADDED from D:\Documents\lucheren\JianZhenKeJi_Road_Car_Person\app\src\main\AndroidManifest.xml:360:17-78
	android:name
		ADDED from D:\Documents\lucheren\JianZhenKeJi_Road_Car_Person\app\src\main\AndroidManifest.xml:360:25-76
intent-filter#android.intent.action.PACKAGE_ADDED+android.intent.action.PACKAGE_REMOVED
ADDED from D:\Documents\lucheren\JianZhenKeJi_Road_Car_Person\app\src\main\AndroidManifest.xml:365:13-370:29
action#android.intent.action.PACKAGE_ADDED
ADDED from D:\Documents\lucheren\JianZhenKeJi_Road_Car_Person\app\src\main\AndroidManifest.xml:366:17-77
	android:name
		ADDED from D:\Documents\lucheren\JianZhenKeJi_Road_Car_Person\app\src\main\AndroidManifest.xml:366:25-75
action#android.intent.action.PACKAGE_REMOVED
ADDED from D:\Documents\lucheren\JianZhenKeJi_Road_Car_Person\app\src\main\AndroidManifest.xml:367:17-79
	android:name
		ADDED from D:\Documents\lucheren\JianZhenKeJi_Road_Car_Person\app\src\main\AndroidManifest.xml:367:25-77
receiver#cn.jpush.android.service.AlarmReceiver
ADDED from D:\Documents\lucheren\JianZhenKeJi_Road_Car_Person\app\src\main\AndroidManifest.xml:374:9-376:39
	android:exported
		ADDED from D:\Documents\lucheren\JianZhenKeJi_Road_Car_Person\app\src\main\AndroidManifest.xml:376:13-37
	android:name
		ADDED from D:\Documents\lucheren\JianZhenKeJi_Road_Car_Person\app\src\main\AndroidManifest.xml:375:13-66
receiver#com.jzkj.jianzhenkeji_road_car_person.MyReceiver
ADDED from D:\Documents\lucheren\JianZhenKeJi_Road_Car_Person\app\src\main\AndroidManifest.xml:379:9-411:20
	android:enabled
		ADDED from D:\Documents\lucheren\JianZhenKeJi_Road_Car_Person\app\src\main\AndroidManifest.xml:381:13-35
	android:exported
		ADDED from D:\Documents\lucheren\JianZhenKeJi_Road_Car_Person\app\src\main\AndroidManifest.xml:382:13-37
	android:name
		ADDED from D:\Documents\lucheren\JianZhenKeJi_Road_Car_Person\app\src\main\AndroidManifest.xml:380:13-39
intent-filter#${applicationId}+cn.jpush.android.intent.ACTION_RICHPUSH_CALLBACK+cn.jpush.android.intent.CONNECTION+cn.jpush.android.intent.MESSAGE_RECEIVED+cn.jpush.android.intent.NOTIFICATION_OPENED+cn.jpush.android.intent.NOTIFICATION_RECEIVED+cn.jpush.android.intent.REGISTRATION+cn.jpush.android.intent.UNREGISTRATION
ADDED from D:\Documents\lucheren\JianZhenKeJi_Road_Car_Person\app\src\main\AndroidManifest.xml:383:13-410:29
action#cn.jpush.android.intent.REGISTRATION
ADDED from D:\Documents\lucheren\JianZhenKeJi_Road_Car_Person\app\src\main\AndroidManifest.xml:384:17-78
	android:name
		ADDED from D:\Documents\lucheren\JianZhenKeJi_Road_Car_Person\app\src\main\AndroidManifest.xml:384:25-76
action#cn.jpush.android.intent.UNREGISTRATION
ADDED from D:\Documents\lucheren\JianZhenKeJi_Road_Car_Person\app\src\main\AndroidManifest.xml:388:17-80
	android:name
		ADDED from D:\Documents\lucheren\JianZhenKeJi_Road_Car_Person\app\src\main\AndroidManifest.xml:388:25-78
action#cn.jpush.android.intent.MESSAGE_RECEIVED
ADDED from D:\Documents\lucheren\JianZhenKeJi_Road_Car_Person\app\src\main\AndroidManifest.xml:389:17-82
	android:name
		ADDED from D:\Documents\lucheren\JianZhenKeJi_Road_Car_Person\app\src\main\AndroidManifest.xml:389:25-80
action#cn.jpush.android.intent.NOTIFICATION_RECEIVED
ADDED from D:\Documents\lucheren\JianZhenKeJi_Road_Car_Person\app\src\main\AndroidManifest.xml:393:17-87
	android:name
		ADDED from D:\Documents\lucheren\JianZhenKeJi_Road_Car_Person\app\src\main\AndroidManifest.xml:393:25-85
action#cn.jpush.android.intent.NOTIFICATION_OPENED
ADDED from D:\Documents\lucheren\JianZhenKeJi_Road_Car_Person\app\src\main\AndroidManifest.xml:397:17-85
	android:name
		ADDED from D:\Documents\lucheren\JianZhenKeJi_Road_Car_Person\app\src\main\AndroidManifest.xml:397:25-83
action#cn.jpush.android.intent.ACTION_RICHPUSH_CALLBACK
ADDED from D:\Documents\lucheren\JianZhenKeJi_Road_Car_Person\app\src\main\AndroidManifest.xml:401:17-90
	android:name
		ADDED from D:\Documents\lucheren\JianZhenKeJi_Road_Car_Person\app\src\main\AndroidManifest.xml:401:25-88
action#cn.jpush.android.intent.CONNECTION
ADDED from D:\Documents\lucheren\JianZhenKeJi_Road_Car_Person\app\src\main\AndroidManifest.xml:405:17-76
	android:name
		ADDED from D:\Documents\lucheren\JianZhenKeJi_Road_Car_Person\app\src\main\AndroidManifest.xml:405:25-74
meta-data#JPUSH_CHANNEL
ADDED from D:\Documents\lucheren\JianZhenKeJi_Road_Car_Person\app\src\main\AndroidManifest.xml:414:9-416:48
	android:value
		ADDED from D:\Documents\lucheren\JianZhenKeJi_Road_Car_Person\app\src\main\AndroidManifest.xml:416:13-46
	android:name
		ADDED from D:\Documents\lucheren\JianZhenKeJi_Road_Car_Person\app\src\main\AndroidManifest.xml:415:13-41
meta-data#JPUSH_APPKEY
ADDED from D:\Documents\lucheren\JianZhenKeJi_Road_Car_Person\app\src\main\AndroidManifest.xml:417:9-419:55
	android:value
		ADDED from D:\Documents\lucheren\JianZhenKeJi_Road_Car_Person\app\src\main\AndroidManifest.xml:419:13-53
	android:name
		ADDED from D:\Documents\lucheren\JianZhenKeJi_Road_Car_Person\app\src\main\AndroidManifest.xml:418:13-40
activity#com.alipay.sdk.app.H5PayActivity
ADDED from D:\Documents\lucheren\JianZhenKeJi_Road_Car_Person\app\src\main\AndroidManifest.xml:425:9-431:20
	android:screenOrientation
		ADDED from D:\Documents\lucheren\JianZhenKeJi_Road_Car_Person\app\src\main\AndroidManifest.xml:429:13-47
	android:exported
		ADDED from D:\Documents\lucheren\JianZhenKeJi_Road_Car_Person\app\src\main\AndroidManifest.xml:428:13-37
	android:windowSoftInputMode
		ADDED from D:\Documents\lucheren\JianZhenKeJi_Road_Car_Person\app\src\main\AndroidManifest.xml:430:13-67
	android:configChanges
		ADDED from D:\Documents\lucheren\JianZhenKeJi_Road_Car_Person\app\src\main\AndroidManifest.xml:427:13-85
	android:name
		ADDED from D:\Documents\lucheren\JianZhenKeJi_Road_Car_Person\app\src\main\AndroidManifest.xml:426:13-60
activity#com.jzkj.jianzhenkeji_road_car_person.activity.PaySuccessActivity
ADDED from D:\Documents\lucheren\JianZhenKeJi_Road_Car_Person\app\src\main\AndroidManifest.xml:433:9-437:20
	android:screenOrientation
		ADDED from D:\Documents\lucheren\JianZhenKeJi_Road_Car_Person\app\src\main\AndroidManifest.xml:436:13-49
	android:launchMode
		ADDED from D:\Documents\lucheren\JianZhenKeJi_Road_Car_Person\app\src\main\AndroidManifest.xml:435:13-43
	android:name
		ADDED from D:\Documents\lucheren\JianZhenKeJi_Road_Car_Person\app\src\main\AndroidManifest.xml:434:13-56
activity#com.jzkj.jianzhenkeji_road_car_person.activity.LookRoomDetailsActivity
ADDED from D:\Documents\lucheren\JianZhenKeJi_Road_Car_Person\app\src\main\AndroidManifest.xml:438:9-442:20
	android:screenOrientation
		ADDED from D:\Documents\lucheren\JianZhenKeJi_Road_Car_Person\app\src\main\AndroidManifest.xml:441:13-49
	android:launchMode
		ADDED from D:\Documents\lucheren\JianZhenKeJi_Road_Car_Person\app\src\main\AndroidManifest.xml:440:13-43
	android:name
		ADDED from D:\Documents\lucheren\JianZhenKeJi_Road_Car_Person\app\src\main\AndroidManifest.xml:439:13-61
activity#com.jzkj.jianzhenkeji_road_car_person.activity.UserAgreementActivity
ADDED from D:\Documents\lucheren\JianZhenKeJi_Road_Car_Person\app\src\main\AndroidManifest.xml:443:9-447:20
	android:screenOrientation
		ADDED from D:\Documents\lucheren\JianZhenKeJi_Road_Car_Person\app\src\main\AndroidManifest.xml:446:13-49
	android:launchMode
		ADDED from D:\Documents\lucheren\JianZhenKeJi_Road_Car_Person\app\src\main\AndroidManifest.xml:445:13-43
	android:name
		ADDED from D:\Documents\lucheren\JianZhenKeJi_Road_Car_Person\app\src\main\AndroidManifest.xml:444:13-59
activity#com.jzkj.jianzhenkeji_road_car_person.activity.AboutUs
ADDED from D:\Documents\lucheren\JianZhenKeJi_Road_Car_Person\app\src\main\AndroidManifest.xml:448:9-452:20
	android:screenOrientation
		ADDED from D:\Documents\lucheren\JianZhenKeJi_Road_Car_Person\app\src\main\AndroidManifest.xml:451:13-49
	android:launchMode
		ADDED from D:\Documents\lucheren\JianZhenKeJi_Road_Car_Person\app\src\main\AndroidManifest.xml:450:13-43
	android:name
		ADDED from D:\Documents\lucheren\JianZhenKeJi_Road_Car_Person\app\src\main\AndroidManifest.xml:449:13-45
activity#com.jzkj.jianzhenkeji_road_car_person.activity.MyOrderNewsActivity
ADDED from D:\Documents\lucheren\JianZhenKeJi_Road_Car_Person\app\src\main\AndroidManifest.xml:453:9-457:20
	android:screenOrientation
		ADDED from D:\Documents\lucheren\JianZhenKeJi_Road_Car_Person\app\src\main\AndroidManifest.xml:456:13-49
	android:launchMode
		ADDED from D:\Documents\lucheren\JianZhenKeJi_Road_Car_Person\app\src\main\AndroidManifest.xml:455:13-43
	android:name
		ADDED from D:\Documents\lucheren\JianZhenKeJi_Road_Car_Person\app\src\main\AndroidManifest.xml:454:13-57
activity#com.jzkj.jianzhenkeji_road_car_person.activity.ChooseSchoolActivity
ADDED from D:\Documents\lucheren\JianZhenKeJi_Road_Car_Person\app\src\main\AndroidManifest.xml:458:9-462:20
	android:screenOrientation
		ADDED from D:\Documents\lucheren\JianZhenKeJi_Road_Car_Person\app\src\main\AndroidManifest.xml:461:13-49
	android:launchMode
		ADDED from D:\Documents\lucheren\JianZhenKeJi_Road_Car_Person\app\src\main\AndroidManifest.xml:460:13-43
	android:name
		ADDED from D:\Documents\lucheren\JianZhenKeJi_Road_Car_Person\app\src\main\AndroidManifest.xml:459:13-58
activity#com.jzkj.jianzhenkeji_road_car_person.activity.TipActivity_1
ADDED from D:\Documents\lucheren\JianZhenKeJi_Road_Car_Person\app\src\main\AndroidManifest.xml:463:9-467:48
	android:screenOrientation
		ADDED from D:\Documents\lucheren\JianZhenKeJi_Road_Car_Person\app\src\main\AndroidManifest.xml:466:13-49
	android:launchMode
		ADDED from D:\Documents\lucheren\JianZhenKeJi_Road_Car_Person\app\src\main\AndroidManifest.xml:465:13-43
	android:theme
		ADDED from D:\Documents\lucheren\JianZhenKeJi_Road_Car_Person\app\src\main\AndroidManifest.xml:467:13-46
	android:name
		ADDED from D:\Documents\lucheren\JianZhenKeJi_Road_Car_Person\app\src\main\AndroidManifest.xml:464:13-51
activity#com.jzkj.jianzhenkeji_road_car_person.activity.TipActivity_2
ADDED from D:\Documents\lucheren\JianZhenKeJi_Road_Car_Person\app\src\main\AndroidManifest.xml:468:9-472:48
	android:screenOrientation
		ADDED from D:\Documents\lucheren\JianZhenKeJi_Road_Car_Person\app\src\main\AndroidManifest.xml:471:13-49
	android:launchMode
		ADDED from D:\Documents\lucheren\JianZhenKeJi_Road_Car_Person\app\src\main\AndroidManifest.xml:470:13-43
	android:theme
		ADDED from D:\Documents\lucheren\JianZhenKeJi_Road_Car_Person\app\src\main\AndroidManifest.xml:472:13-46
	android:name
		ADDED from D:\Documents\lucheren\JianZhenKeJi_Road_Car_Person\app\src\main\AndroidManifest.xml:469:13-51
activity#com.jzkj.jianzhenkeji_road_car_person.activity.TipActivity_3
ADDED from D:\Documents\lucheren\JianZhenKeJi_Road_Car_Person\app\src\main\AndroidManifest.xml:473:9-477:48
	android:screenOrientation
		ADDED from D:\Documents\lucheren\JianZhenKeJi_Road_Car_Person\app\src\main\AndroidManifest.xml:476:13-49
	android:launchMode
		ADDED from D:\Documents\lucheren\JianZhenKeJi_Road_Car_Person\app\src\main\AndroidManifest.xml:475:13-43
	android:theme
		ADDED from D:\Documents\lucheren\JianZhenKeJi_Road_Car_Person\app\src\main\AndroidManifest.xml:477:13-46
	android:name
		ADDED from D:\Documents\lucheren\JianZhenKeJi_Road_Car_Person\app\src\main\AndroidManifest.xml:474:13-51
activity#com.jzkj.jianzhenkeji_road_car_person.activity.ToCompanyActivity
ADDED from D:\Documents\lucheren\JianZhenKeJi_Road_Car_Person\app\src\main\AndroidManifest.xml:478:9-482:20
	android:screenOrientation
		ADDED from D:\Documents\lucheren\JianZhenKeJi_Road_Car_Person\app\src\main\AndroidManifest.xml:481:13-49
	android:launchMode
		ADDED from D:\Documents\lucheren\JianZhenKeJi_Road_Car_Person\app\src\main\AndroidManifest.xml:480:13-43
	android:name
		ADDED from D:\Documents\lucheren\JianZhenKeJi_Road_Car_Person\app\src\main\AndroidManifest.xml:479:13-55
activity#com.jzkj.jianzhenkeji_road_car_person.activity.ScoreStoreActivity
ADDED from D:\Documents\lucheren\JianZhenKeJi_Road_Car_Person\app\src\main\AndroidManifest.xml:483:9-487:20
	android:screenOrientation
		ADDED from D:\Documents\lucheren\JianZhenKeJi_Road_Car_Person\app\src\main\AndroidManifest.xml:486:13-49
	android:launchMode
		ADDED from D:\Documents\lucheren\JianZhenKeJi_Road_Car_Person\app\src\main\AndroidManifest.xml:485:13-43
	android:name
		ADDED from D:\Documents\lucheren\JianZhenKeJi_Road_Car_Person\app\src\main\AndroidManifest.xml:484:13-56
activity#com.jzkj.jianzhenkeji_road_car_person.activity.ExchangeRecordActivity
ADDED from D:\Documents\lucheren\JianZhenKeJi_Road_Car_Person\app\src\main\AndroidManifest.xml:488:9-492:20
	android:screenOrientation
		ADDED from D:\Documents\lucheren\JianZhenKeJi_Road_Car_Person\app\src\main\AndroidManifest.xml:491:13-49
	android:launchMode
		ADDED from D:\Documents\lucheren\JianZhenKeJi_Road_Car_Person\app\src\main\AndroidManifest.xml:490:13-43
	android:name
		ADDED from D:\Documents\lucheren\JianZhenKeJi_Road_Car_Person\app\src\main\AndroidManifest.xml:489:13-60
activity#com.jzkj.jianzhenkeji_road_car_person.activity.MyCoachActivity
ADDED from D:\Documents\lucheren\JianZhenKeJi_Road_Car_Person\app\src\main\AndroidManifest.xml:493:9-497:20
	android:screenOrientation
		ADDED from D:\Documents\lucheren\JianZhenKeJi_Road_Car_Person\app\src\main\AndroidManifest.xml:496:13-49
	android:launchMode
		ADDED from D:\Documents\lucheren\JianZhenKeJi_Road_Car_Person\app\src\main\AndroidManifest.xml:495:13-43
	android:name
		ADDED from D:\Documents\lucheren\JianZhenKeJi_Road_Car_Person\app\src\main\AndroidManifest.xml:494:13-53
activity#com.jzkj.jianzhenkeji_road_car_person.activity.WareDetailActivity
ADDED from D:\Documents\lucheren\JianZhenKeJi_Road_Car_Person\app\src\main\AndroidManifest.xml:498:9-502:20
	android:screenOrientation
		ADDED from D:\Documents\lucheren\JianZhenKeJi_Road_Car_Person\app\src\main\AndroidManifest.xml:501:13-49
	android:launchMode
		ADDED from D:\Documents\lucheren\JianZhenKeJi_Road_Car_Person\app\src\main\AndroidManifest.xml:500:13-43
	android:name
		ADDED from D:\Documents\lucheren\JianZhenKeJi_Road_Car_Person\app\src\main\AndroidManifest.xml:499:13-56
activity#com.jzkj.jianzhenkeji_road_car_person.activity.MyBusinessActivity
ADDED from D:\Documents\lucheren\JianZhenKeJi_Road_Car_Person\app\src\main\AndroidManifest.xml:503:9-507:20
	android:screenOrientation
		ADDED from D:\Documents\lucheren\JianZhenKeJi_Road_Car_Person\app\src\main\AndroidManifest.xml:506:13-49
	android:launchMode
		ADDED from D:\Documents\lucheren\JianZhenKeJi_Road_Car_Person\app\src\main\AndroidManifest.xml:505:13-43
	android:name
		ADDED from D:\Documents\lucheren\JianZhenKeJi_Road_Car_Person\app\src\main\AndroidManifest.xml:504:13-56
activity#com.jzkj.jianzhenkeji_road_car_person.activity.RechargeActivity
ADDED from D:\Documents\lucheren\JianZhenKeJi_Road_Car_Person\app\src\main\AndroidManifest.xml:508:9-512:20
	android:screenOrientation
		ADDED from D:\Documents\lucheren\JianZhenKeJi_Road_Car_Person\app\src\main\AndroidManifest.xml:511:13-49
	android:launchMode
		ADDED from D:\Documents\lucheren\JianZhenKeJi_Road_Car_Person\app\src\main\AndroidManifest.xml:510:13-43
	android:name
		ADDED from D:\Documents\lucheren\JianZhenKeJi_Road_Car_Person\app\src\main\AndroidManifest.xml:509:13-54
activity#com.jzkj.jianzhenkeji_road_car_person.activity.CommentedActivity
ADDED from D:\Documents\lucheren\JianZhenKeJi_Road_Car_Person\app\src\main\AndroidManifest.xml:513:9-517:20
	android:screenOrientation
		ADDED from D:\Documents\lucheren\JianZhenKeJi_Road_Car_Person\app\src\main\AndroidManifest.xml:516:13-49
	android:launchMode
		ADDED from D:\Documents\lucheren\JianZhenKeJi_Road_Car_Person\app\src\main\AndroidManifest.xml:515:13-43
	android:name
		ADDED from D:\Documents\lucheren\JianZhenKeJi_Road_Car_Person\app\src\main\AndroidManifest.xml:514:13-55
activity#com.jzkj.jianzhenkeji_road_car_person.activity.OrderDetailActivity
ADDED from D:\Documents\lucheren\JianZhenKeJi_Road_Car_Person\app\src\main\AndroidManifest.xml:518:9-522:20
	android:screenOrientation
		ADDED from D:\Documents\lucheren\JianZhenKeJi_Road_Car_Person\app\src\main\AndroidManifest.xml:521:13-49
	android:launchMode
		ADDED from D:\Documents\lucheren\JianZhenKeJi_Road_Car_Person\app\src\main\AndroidManifest.xml:520:13-43
	android:name
		ADDED from D:\Documents\lucheren\JianZhenKeJi_Road_Car_Person\app\src\main\AndroidManifest.xml:519:13-57
activity#com.jzkj.jianzhenkeji_road_car_person.activity.IntegralDetailsActivity
ADDED from D:\Documents\lucheren\JianZhenKeJi_Road_Car_Person\app\src\main\AndroidManifest.xml:523:9-527:20
	android:screenOrientation
		ADDED from D:\Documents\lucheren\JianZhenKeJi_Road_Car_Person\app\src\main\AndroidManifest.xml:526:13-49
	android:launchMode
		ADDED from D:\Documents\lucheren\JianZhenKeJi_Road_Car_Person\app\src\main\AndroidManifest.xml:525:13-43
	android:name
		ADDED from D:\Documents\lucheren\JianZhenKeJi_Road_Car_Person\app\src\main\AndroidManifest.xml:524:13-61
activity#com.jzkj.jianzhenkeji_road_car_person.activity.WebPageActivity
ADDED from D:\Documents\lucheren\JianZhenKeJi_Road_Car_Person\app\src\main\AndroidManifest.xml:528:9-529:20
	android:name
		ADDED from D:\Documents\lucheren\JianZhenKeJi_Road_Car_Person\app\src\main\AndroidManifest.xml:528:19-59
activity#com.jzkj.jianzhenkeji_road_car_person.activity.MyDrivingHomepageActivity
ADDED from D:\Documents\lucheren\JianZhenKeJi_Road_Car_Person\app\src\main\AndroidManifest.xml:530:9-531:20
	android:name
		ADDED from D:\Documents\lucheren\JianZhenKeJi_Road_Car_Person\app\src\main\AndroidManifest.xml:530:19-69
